Proyectos/Verificación SystemVerilog/Monociclo/dump.vcd
$date
Wed Jul 20 13:25:47 2022
$end
$version
Riviera-PRO Version 2020.04.130.7729
$end
$timescale
1 ns
$end

$scope module tbench_top $end
$var reg 1 ! clk $end
$var reg 1 " reset $end

$scope module intf $end
$var reg 32 # addr [31:0] $end
$var reg 1 $ wr_en $end
$var reg 1 % rd_en $end
$var reg 32 & wdata [31:0] $end
$var reg 32 ' rdata [31:0] $end
$var reg 32 ( rdata2 [31:0] $end
$var reg 32 ) addr [31:0] $end
$var reg 1 * wr_en $end
$var reg 1 + rd_en $end
$var reg 32 , wdata [31:0] $end
$var reg 32 - rdata [31:0] $end
$var reg 32 . rdata2 [31:0] $end
$var reg 32 / addr [31:0] $end
$var reg 1 0 wr_en $end
$var reg 1 1 rd_en $end
$var reg 32 2 wdata [31:0] $end
$var reg 32 3 rdata [31:0] $end
$var reg 32 4 rdata2 [31:0] $end
$upscope $end


$scope module t1 $end
$upscope $end


$scope module DUT $end
$var wire 1 5 clk $end
$var wire 1 6 FR_WE $end
$var wire 5 7 FR_Waddr [4:0] $end
$var wire 32 8 FR_Wdata [31:0] $end
$var wire 5 9 FR_RAddr_1 [4:0] $end
$var wire 32 : FR_Rdata_1 [31:0] $end
$var wire 5 ; FR_RAddr_2 [4:0] $end
$var wire 32 < FR_Rdata_2 [31:0] $end
$upscope $end

$upscope $end

$enddefinitions $end
$dumpvars
0!
1"
bx #
x$
x%
bx &
bx '
bx (
bx )
x*
x+
bx ,
bx -
bx .
bx /
x0
x1
bx 2
bx 3
bx 4
05
x6
bx 7
bx 8
bx 9
bx :
bx ;
bx <
$end
0*
0+
b0 )
b0 ,
#5
1!
0"
15
#6
b0 &
0%
0$
b0 #
b0 7
b0 9
b0 ;
06
b0 8
b0 <
b0 (
b0 :
b0 '
#10
0!
05
#15
1!
15
b0 4
b0 3
b0 2
01
00
b0 /
b0 .
b0 -
b0 )
1*
b10010100 ,
#16
b10010100 &
1$
16
b10010100 8
#20
0!
05
#25
1!
15
b10010100 <
b10010100 (
b10010100 :
b10010100 '
b10010100 2
10
0*
#26
0$
06
#30
0!
05
#35
1!
15
b10010100 4
b10010100 3
00
b10010100 .
b10010100 -
b0 )
1+
#36
1%
#40
0!
05
#45
1!
15
11
0+
#46
0%
#50
0!
05
#55
1!
15
01
#60
0!
05
#65
1!
15
b1 )
1*
b11110000 ,
#66
b11110000 &
b1 #
1$
16
b1 7
b1 9
b1 ;
b11110000 8
b0 <
b0 (
b0 :
b0 '
#70
0!
05
#75
1!
15
b11110000 <
b11110000 (
b11110000 :
b11110000 '
b0 4
b0 3
b11110000 2
10
b1 /
b0 .
b0 -
0*
#76
0$
06
#80
0!
05
#85
1!
15
b11110000 4
b11110000 3
00
b11110000 .
b11110000 -
b1 )
1+
#86
1%
#90
0!
05
#95
1!
15
11
0+
#96
0%
#100
0!
05
#105
1!
15
01
#110
0!
05
#115
1!
15
b10 )
1*
b10000000 ,
#116
b10000000 &
b10 #
1$
16
b10 7
b10 9
b10 ;
b10000000 8
b0 <
b0 (
b0 :
b0 '
#120
0!
05
#125
1!
15
b10000000 <
b10000000 (
b10000000 :
b10000000 '
b0 4
b0 3
b10000000 2
10
b10 /
b0 .
b0 -
0*
#126
0$
06
#130
0!
05
#135
1!
15
b10000000 4
b10000000 3
00
b10000000 .
b10000000 -
b10 )
1+
#136
1%
#140
0!
05
#145
1!
15
11
0+
#146
0%
#150
0!
05
#155
1!
15
01
#160
0!
05
#165
1!
15
b11 )
1*
b11001100 ,
#166
b11001100 &
b11 #
1$
16
b11 7
b11 9
b11 ;
b11001100 8
b0 <
b0 (
b0 :
b0 '
#170
0!
05
#175
1!
15
b11001100 <
b11001100 (
b11001100 :
b11001100 '
b0 4
b0 3
b11001100 2
10
b11 /
b0 .
b0 -
0*
#176
0$
06
#180
0!
05
#185
1!
15
b11001100 4
b11001100 3
00
b11001100 .
b11001100 -
b11 )
1+
#186
1%
#190
0!
05
#195
1!
15
11
0+
#196
0%
#200
0!
05
#205
1!
15
01
#210
0!
05
#215
1!
15
b0 )
1*
b11101000 ,
#216
b11101000 &
b0 #
1$
16
b0 7
b0 9
b0 ;
b11101000 8
b10010100 <
b10010100 (
b10010100 :
b10010100 '
#220
0!
05
#225
1!
15
b11101000 <
b11101000 (
b11101000 :
b11101000 '
b10010100 4
b10010100 3
b11101000 2
10
b0 /
b10010100 .
b10010100 -
0*
#226
0$
06
#230
0!
05
#235
1!
15
b11101000 4
b11101000 3
00
b11101000 .
b11101000 -
b0 )
1+
#236
1%
#240
0!
05
#245
1!
15
11
0+
#246
0%
#250
0!
05
#255
1!
15
01
